___lwdiv@dividend 1 0 COMRAM 1
___aodiv@counter 11 0 COMRAM 1
___lwdiv@counter 7 0 COMRAM 1
__S0 30000E 0 ABS 0
__S1 9C 0 ABS 0
__S2 0 0 ABS 0
__Hintentry 0 0 ABS 0
__CFG_PWRT$OFF 0 0 ABS 0
__Lintentry 0 0 ABS 0
_pad E5C 0 CODE 0
_abs 11B0 0 CODE 0
abs@a 13 0 COMRAM 1
pad@i 18 0 COMRAM 1
pad@p 15 0 COMRAM 1
?_pad 11 0 COMRAM 1
pad@w 1A 0 COMRAM 1
AD_ISR@t_Bin_Temp 92 0 BANK0 1
_prec 64 0 BANK0 1
_dtoa 608 0 CODE 0
_dbuf 6E 0 BANK0 1
?_abs 13 0 COMRAM 1
_main 123E 0 CODE 0
__end_of_AD_ISR 10F0 0 CODE 0
___sp 0 0 STACK 2
btemp 5E 0 COMRAM 1
start 6A 0 CODE 0
_nout 60 0 BANK0 1
printf@ap 90 0 BANK0 1
_TRISC F94 0 ABS 0
_TRISD F95 0 ABS 0
__Hirdata 0 0 CODE 0
__Lirdata 0 0 CODE 0
__HRAM 0 0 ABS 0
__LRAM 1 0 ABS 0
__size_of_vfprintf 0 0 ABS 0
ttemp5 5F 0 COMRAM 1
ttemp6 62 0 COMRAM 1
ttemp7 66 0 COMRAM 1
wtemp8 5F 0 COMRAM 1
__Hconfig 30000E 0 CONFIG 0
__Lconfig 300000 0 CONFIG 0
?___aomod 1 0 COMRAM 1
dtoa@d 1E 0 COMRAM 1
dtoa@i 3E 0 COMRAM 1
dtoa@n 36 0 COMRAM 1
dtoa@p 30 0 COMRAM 1
dtoa@s 34 0 COMRAM 1
__CFG_WDTPS$128 0 0 ABS 0
__Hbigram 0 0 ABS 0
__Lbigram 0 0 ABS 0
__Hrparam 0 0 COMRAM 1
dtoa@w 32 0 COMRAM 1
__Lrparam 0 0 COMRAM 1
pad@fp 11 0 COMRAM 1
?_dtoa 1C 0 COMRAM 1
__Hram 0 0 ABS 0
__Lram 0 0 ABS 0
__Hcomram 0 0 ABS 0
_putch 12BA 0 CODE 0
__Lcomram 0 0 ABS 0
_fputc F42 0 CODE 0
_width 62 0 BANK0 1
__Hsfr 0 0 ABS 0
__Lsfr 0 0 ABS 0
_flags 66 0 BANK0 1
__Hbss 0 0 RAM 1
__Lbss 0 0 RAM 1
___param_bank 0 0 ABS 0
__Hnvrram 0 0 COMRAM 1
__Lnvrram 0 0 COMRAM 1
__size_of_AD_ISR 0 0 ABS 0
_vfprintf 10F0 0 CODE 0
_Bin_Temp 68 0 BANK0 1
_fputs 1160 0 CODE 0
int$flags 5E 0 COMRAM 1
__end_of_abs 11FC 0 CODE 0
_ADCON0 FC2 0 ABS 0
_ADCON1 FC1 0 ABS 0
__end_of_vfpfcnvrt B18 0 CODE 0
__end_of_putch 12C0 0 CODE 0
_PIE1bits F9D 0 ABS 0
__Heeprom_data 0 0 EEDATA 0
__Leeprom_data 0 0 EEDATA 0
_PIR1bits F9E 0 ABS 0
__end_of_chk_isr 6A 0 CODE 0
__Hintsave_regs 0 0 BIGRAM 1
__Lintsave_regs 0 0 BIGRAM 1
?___aodiv 1 0 COMRAM 1
__Hbigbss 0 0 BIGRAM 1
__Lbigbss 0 0 BIGRAM 1
__Hintret 0 0 ABS 0
__Lintret 0 0 ABS 0
__Hramtop 600 0 RAM 0
__Lramtop 600 0 RAM 0
__Hstruct 0 0 COMRAM 1
__Lstruct 0 0 COMRAM 1
__Hbigdata 0 0 BIGRAM 1
__Lbigdata 0 0 BIGRAM 1
__Hmediumconst 0 0 MEDIUMCONST 0
__end_of_strlen 123E 0 CODE 0
__Lmediumconst 0 0 MEDIUMCONST 0
?___lwdiv 1 0 COMRAM 1
__Hfarbss 0 0 FARRAM 0
__Lfarbss 0 0 FARRAM 0
__Hintcode 6A 0 CODE 0
__Lintcode 8 0 CODE 0
__Hfardata 0 0 FARRAM 0
_ADRESH FC4 0 ABS 0
__Lfardata 0 0 FARRAM 0
__pintcode 8 0 CODE 0
__Habs1 0 0 ABS 0
__Labs1 0 0 ABS 0
_ADRESL FC3 0 ABS 0
__CFG_EBTR0$OFF 0 0 ABS 0
__size_of_fputc 0 0 ABS 0
_AD_ISR 107E 0 CODE 0
__HnvFARRAM 0 0 FARRAM 0
__LnvFARRAM 0 0 FARRAM 0
__CFG_EBTR1$OFF 0 0 ABS 0
fputc@c 1 0 COMRAM 1
__CFG_EBTR2$OFF 0 0 ABS 0
fputs@c E 0 COMRAM 1
fputs@i F 0 COMRAM 1
__CFG_BORV$25 0 0 ABS 0
__Hdata 0 0 ABS 0
__Ldata 0 0 ABS 0
__CFG_EBTR3$OFF 0 0 ABS 0
fputs@s A 0 COMRAM 1
dtoa@fp 1C 0 COMRAM 1
pad@buf 13 0 COMRAM 1
_H_Byte 6A 0 BANK0 1
stackhi 5FF 0 ABS 0
__HcstackBANK0 0 0 ABS 0
__LcstackBANK0 0 0 ABS 0
_L_byte 6C 0 BANK0 1
___aomod@sign 12 0 COMRAM 1
_printf 1270 0 CODE 0
__pcstackBANK0 8E 0 BANK0 1
_strlen 11FC 0 CODE 0
__Htemp 5F 0 COMRAM 1
__Ltemp 5E 0 COMRAM 1
stacklo 9C 0 ABS 0
__Hrbit 0 0 COMRAM 1
__Lrbit 0 0 COMRAM 1
__Hinit 6E 0 CODE 0
__Linit 6A 0 CODE 0
__Hintcodelo 6A 0 CODE 0
__Lintcodelo 6A 0 CODE 0
__Hrbss 0 0 COMRAM 1
__end_of_main 1270 0 CODE 0
__Lrbss 0 0 COMRAM 1
__Htext 0 0 ABS 0
__Ltext 0 0 ABS 0
?_vfprintf 50 0 COMRAM 1
__CFG_OSC$HS 0 0 ABS 0
__CFG_LVP$ON 0 0 ABS 0
__size_of_pad 0 0 ABS 0
end_of_initialization 12A8 0 CODE 0
___aodiv@sign 12 0 COMRAM 1
__size_of_abs 0 0 ABS 0
printf@fmt 58 0 COMRAM 1
__size_of___aodiv 0 0 ABS 0
__end_of___aodiv CCC 0 CODE 0
vfprintf@fmt 52 0 COMRAM 1
__end_of_fputs 11B0 0 CODE 0
__size_of_putch 0 0 ABS 0
vfprintf@ap 54 0 COMRAM 1
_TRISAbits F92 0 ABS 0
__Hibigdata 0 0 CODE 0
__Libigdata 0 0 CODE 0
__size_of_strlen 0 0 ABS 0
__Hifardata 0 0 CODE 0
__Lifardata 0 0 CODE 0
__Hbank0 0 0 ABS 0
__Lbank0 0 0 ABS 0
__Hbank1 0 0 ABS 0
__Lbank1 0 0 ABS 0
__Hbank2 0 0 ABS 0
__Lbank2 0 0 ABS 0
__Hbank3 0 0 ABS 0
__Lbank3 0 0 ABS 0
__Hbank4 0 0 ABS 0
__Lbank4 0 0 ABS 0
__Hbank5 0 0 ABS 0
__Lbank5 0 0 ABS 0
vfprintf@fp 50 0 COMRAM 1
__Hpowerup 6A 0 CODE 0
__Lpowerup 6A 0 CODE 0
__Htext0 0 0 ABS 0
__Ltext0 0 0 ABS 0
__ptext0 123E 0 CODE 0
__Htext2 0 0 ABS 0
__Ltext2 0 0 ABS 0
__Htext3 0 0 ABS 0
__Ltext3 0 0 ABS 0
__ptext2 107E 0 CODE 0
__Htext4 0 0 ABS 0
__Ltext4 0 0 ABS 0
__ptext3 1270 0 CODE 0
__Htext5 0 0 ABS 0
__Ltext5 0 0 ABS 0
__ptext4 10F0 0 CODE 0
__Htext6 0 0 ABS 0
__Ltext6 0 0 ABS 0
__ptext5 93C 0 CODE 0
__Htext7 0 0 ABS 0
__Ltext7 0 0 ABS 0
__ptext6 608 0 CODE 0
__Htext8 0 0 ABS 0
__Ltext8 0 0 ABS 0
__ptext7 E5C 0 CODE 0
__Htext9 0 0 ABS 0
__Ltext9 0 0 ABS 0
__ptext8 11FC 0 CODE 0
__ptext9 1160 0 CODE 0
_vfpfcnvrt 93C 0 CODE 0
__Hclrtext 0 0 ABS 0
__Lclrtext 0 0 ABS 0
__size_of_printf 0 0 ABS 0
strlen@a 3 0 COMRAM 1
__end_of__initialization 12A8 0 CODE 0
___rparam_used 1 0 ABS 0
__size_of_dtoa 0 0 ABS 0
__end_of___lwdiv 107E 0 CODE 0
__size_of_chk_isr 0 0 ABS 0
strlen@s 1 0 COMRAM 1
__Hidata 0 0 CODE 0
__Lidata 0 0 CODE 0
__Hrdata 0 0 COMRAM 1
__Lrdata 0 0 COMRAM 1
fputc@fp 3 0 COMRAM 1
__Hidloc 200008 0 IDLOC 0
__Lidloc 200000 0 IDLOC 0
fputs@fp C 0 COMRAM 1
__Hstack 0 0 STACK 2
__Lstack 0 0 STACK 2
___aomod CCC 0 CODE 0
__size_of___aomod 0 0 ABS 0
__Hparam 0 0 COMRAM 1
__Lparam 0 0 COMRAM 1
__Hspace_0 30000E 0 ABS 0
__HcstackCOMRAM 0 0 ABS 0
__Lspace_0 0 0 ABS 0
__LcstackCOMRAM 0 0 ABS 0
__pcstackCOMRAM 1 0 COMRAM 1
?_printf 58 0 COMRAM 1
__end_of___aomod E5C 0 CODE 0
__Hspace_1 9C 0 ABS 0
__Lspace_1 0 0 ABS 0
?_strlen 1 0 COMRAM 1
__Hsmallconst 608 0 SMALLCONST 0
__Lsmallconst 600 0 SMALLCONST 0
__psmallconst 600 0 SMALLCONST 0
__Hspace_2 0 0 ABS 0
__Lspace_2 0 0 ABS 0
__Hnvbit 0 0 COMRAM 1
__Lnvbit 0 0 COMRAM 1
__Hcinit 0 0 ABS 0
__Lcinit 0 0 ABS 0
___aodiv B18 0 CODE 0
__pcinit 129C 0 CODE 0
__CFG_EBTRB$OFF 0 0 ABS 0
_chk_isr 8 0 CODE 0
__ramtop 600 0 RAM 0
__mediumconst 0 0 MEDIUMCONST 0
___lwdiv FF0 0 CODE 0
_dtoa$367 2E 0 COMRAM 1
__size_of_main 0 0 ABS 0
__end_of_fputc FF0 0 CODE 0
__Hconst 0 0 CONST 0
__Lconst 0 0 CONST 0
__CFG_WRT0$OFF 0 0 ABS 0
__end_of_pad F42 0 CODE 0
__CFG_WRT1$OFF 0 0 ABS 0
__size_of___lwdiv 0 0 ABS 0
__HbssBANK0 0 0 ABS 0
__LbssBANK0 0 0 ABS 0
__CFG_WRT2$OFF 0 0 ABS 0
__pbssBANK0 60 0 BANK0 1
__CFG_STVR$ON 0 0 ABS 0
__CFG_WRT3$OFF 0 0 ABS 0
__Htext10 0 0 ABS 0
__Ltext10 0 0 ABS 0
__ptext10 F42 0 CODE 0
__Htext11 0 0 ABS 0
__Ltext11 0 0 ABS 0
__ptext11 12BA 0 CODE 0
__Htext12 0 0 ABS 0
__Ltext12 0 0 ABS 0
__ptext12 11B0 0 CODE 0
__Htext13 0 0 ABS 0
__Ltext13 0 0 ABS 0
__ptext13 CCC 0 CODE 0
_ADCON0bits FC2 0 ABS 0
__Htext14 0 0 ABS 0
__Ltext14 0 0 ABS 0
__ptext14 B18 0 CODE 0
__Htext15 0 0 ABS 0
__size_of_fputs 0 0 ABS 0
__Ltext15 0 0 ABS 0
__ptext15 FF0 0 CODE 0
___inthi_sp 0 0 STACK 2
___aomod@divisor 9 0 COMRAM 1
__end_of_printf 129C 0 CODE 0
___intlo_sp 0 0 STACK 2
__end_of_dtoa 93C 0 CODE 0
_INTCONbits FF2 0 ABS 0
___aodiv@divisor 9 0 COMRAM 1
___lwdiv@divisor 3 0 COMRAM 1
vfpfcnvrt@fmt 42 0 COMRAM 1
__CFG_CP0$OFF 0 0 ABS 0
__smallconst 600 0 SMALLCONST 0
__CFG_CP1$OFF 0 0 ABS 0
__Hreset_vec 6 0 CODE 0
__Lreset_vec 0 0 CODE 0
__CFG_CP2$OFF 0 0 ABS 0
__CFG_CP3$OFF 0 0 ABS 0
vfpfcnvrt@ap 44 0 COMRAM 1
__accesstop 60 0 ABS 0
__Hintcode_body 0 0 ABS 0
__Lintcode_body 0 0 ABS 0
intlevel0 12C0 0 CODE 0
intlevel1 12C0 0 CODE 0
vfprintf@cfmt 56 0 COMRAM 1
__CFG_WRTB$OFF 0 0 ABS 0
intlevel2 12C0 0 CODE 0
intlevel3 12C0 0 CODE 0
__CFG_WRTC$OFF 0 0 ABS 0
__end_of_vfprintf 1160 0 CODE 0
__CFG_WRTD$OFF 0 0 ABS 0
vfpfcnvrt@ll 48 0 COMRAM 1
__CFG_CPB$OFF 0 0 ABS 0
__cntErrataNOP_dist/default/debug\LM35_Interfacing.X.debug.o AD 0 ABS 0
__CFG_CPD$OFF 0 0 ABS 0
start_initialization 129C 0 CODE 0
___aodiv@quotient 13 0 COMRAM 1
___lwdiv@quotient 5 0 COMRAM 1
?_vfpfcnvrt 40 0 COMRAM 1
__CFG_OSCS$OFF 0 0 ABS 0
vfpfcnvrt@fp 40 0 COMRAM 1
__initialization 129C 0 CODE 0
___aomod@dividend 1 0 COMRAM 1
__CFG_BOR$OFF 0 0 ABS 0
__activetblptr 1 0 ABS 0
__cntErrataNOP_C:\Users\HASITH~1\AppData\Local\Temp\sg74.o 1 0 ABS 0
___aomod@counter 11 0 COMRAM 1
__CFG_WDT$OFF 0 0 ABS 0
__size_of_vfpfcnvrt 0 0 ABS 0
___aodiv@dividend 1 0 COMRAM 1
%segments
reset_vec 0 5 CODE 0 0
intcode 8 6D CODE 8 0
smallconst 600 607 SMALLCONST 600 0
config 300000 30000D CONFIG 300000 0
idloc 200000 200007 IDLOC 200000 0
cstackCOMRAM 1 5E COMRAM 1 1
bssBANK0 60 9B BANK0 60 1
text6 608 12C1 CODE 608 0
%locals
dist/default/debug\LM35_Interfacing.X.debug.o
C:\Program Files (x86)\Microchip\xc8\v2.10\pic\include\pic18f458.h
C:\Users\HASITH~1\AppData\Local\Temp\sg74.s
726 129C 0 CODE 0
728 129C 0 CODE 0
731 129C 0 CODE 0
759 129C 0 CODE 0
760 12A0 0 CODE 0
761 12A2 0 CODE 0
762 12A2 0 CODE 0
763 12A4 0 CODE 0
764 12A6 0 CODE 0
770 12A8 0 CODE 0
772 12A8 0 CODE 0
773 12AA 0 CODE 0
775 12AC 0 CODE 0
776 12AE 0 CODE 0
777 12B0 0 CODE 0
778 12B2 0 CODE 0
779 12B4 0 CODE 0
780 12B6 0 CODE 0
main.c
72 123E 0 CODE 0
75 123E 0 CODE 0
76 1244 0 CODE 0
77 1248 0 CODE 0
78 124A 0 CODE 0
79 124C 0 CODE 0
80 1250 0 CODE 0
83 1254 0 CODE 0
84 1256 0 CODE 0
85 1258 0 CODE 0
86 125A 0 CODE 0
89 125C 0 CODE 0
90 1266 0 CODE 0
C:\Users\HASITH~1\AppData\Local\Temp\sg74.s
1397 8 0 CODE 0
main.c
67 8 0 CODE 0
68 2C 0 CODE 0
69 3E 0 CODE 0
70 42 0 CODE 0
main.c
95 107E 0 CODE 0
96 1080 0 CODE 0
97 1088 0 CODE 0
98 108E 0 CODE 0
99 10A0 0 CODE 0
101 10BC 0 CODE 0
102 10D0 0 CODE 0
103 10EA 0 CODE 0
104 10EC 0 CODE 0
C:\Program Files (x86)\Microchip\xc8\v2.10\pic\sources\c99\common\printf.c
5 1270 0 CODE 0
9 1272 0 CODE 0
10 127C 0 CODE 0
13 1298 0 CODE 0
C:\Program Files (x86)\Microchip\xc8\v2.10\pic\sources\c99\common\doprnt.c
1368 10F0 0 CODE 0
1373 10F2 0 CODE 0
1374 10FA 0 CODE 0
1375 1104 0 CODE 0
1376 1108 0 CODE 0
1375 1130 0 CODE 0
1378 1154 0 CODE 0
1382 115C 0 CODE 0
C:\Program Files (x86)\Microchip\xc8\v2.10\pic\sources\c99\common\doprnt.c
670 93C 0 CODE 0
680 93E 0 CODE 0
681 968 0 CODE 0
683 976 0 CODE 0
684 988 0 CODE 0
825 98C 0 CODE 0
827 9DE 0 CODE 0
828 9EE 0 CODE 0
830 A28 0 CODE 0
1350 A60 0 CODE 0
1351 A8C 0 CODE 0
1352 A9A 0 CODE 0
1353 AAE 0 CODE 0
1357 ABC 0 CODE 0
1358 ACC 0 CODE 0
1362 AD8 0 CODE 0
1363 B00 0 CODE 0
1365 B12 0 CODE 0
C:\Program Files (x86)\Microchip\xc8\v2.10\pic\sources\c99\common\doprnt.c
274 608 0 CODE 0
280 60A 0 CODE 0
281 62A 0 CODE 0
282 646 0 CODE 0
283 65C 0 CODE 0
287 67C 0 CODE 0
288 692 0 CODE 0
290 694 0 CODE 0
291 6CC 0 CODE 0
292 6D4 0 CODE 0
293 6FA 0 CODE 0
297 702 0 CODE 0
298 70C 0 CODE 0
299 710 0 CODE 0
300 714 0 CODE 0
301 71C 0 CODE 0
302 79E 0 CODE 0
303 7A4 0 CODE 0
304 7AA 0 CODE 0
299 80E 0 CODE 0
308 89E 0 CODE 0
309 8C8 0 CODE 0
310 8D0 0 CODE 0
314 90E 0 CODE 0
315 938 0 CODE 0
C:\Program Files (x86)\Microchip\xc8\v2.10\pic\sources\c99\common\doprnt.c
72 E5C 0 CODE 0
77 E5E 0 CODE 0
78 E72 0 CODE 0
82 E86 0 CODE 0
83 EB2 0 CODE 0
84 EBA 0 CODE 0
85 EBE 0 CODE 0
86 ED4 0 CODE 0
84 ED8 0 CODE 0
90 EFC 0 CODE 0
91 F10 0 CODE 0
94 F24 0 CODE 0
95 F3E 0 CODE 0
C:\Program Files (x86)\Microchip\xc8\v2.10\pic\sources\c99\common\strlen.c
5 11FC 0 CODE 0
7 11FE 0 CODE 0
8 1206 0 CODE 0
9 120A 0 CODE 0
8 1210 0 CODE 0
11 122E 0 CODE 0
12 123A 0 CODE 0
C:\Program Files (x86)\Microchip\xc8\v2.10\pic\sources\c99\common\nf_fputs.c
8 1160 0 CODE 0
13 1162 0 CODE 0
14 116A 0 CODE 0
15 116E 0 CODE 0
16 1182 0 CODE 0
14 1186 0 CODE 0
19 11AC 0 CODE 0
C:\Program Files (x86)\Microchip\xc8\v2.10\pic\sources\c99\common\nf_fputc.c
8 F42 0 CODE 0
12 F44 0 CODE 0
13 F6E 0 CODE 0
14 F76 0 CODE 0
15 F7A 0 CODE 0
17 FD6 0 CODE 0
21 FEA 0 CODE 0
C:\Program Files (x86)\Microchip\xc8\v2.10\pic\sources\c99\common\putch.c
7 12BA 0 CODE 0
9 12BC 0 CODE 0
C:\Program Files (x86)\Microchip\xc8\v2.10\pic\sources\c99\common\abs.c
1 11B0 0 CODE 0
3 11B2 0 CODE 0
4 11F6 0 CODE 0
C:\Program Files (x86)\Microchip\xc8\v2.10\pic\sources\c99\common\aomod.c
9 CCC 0 CODE 0
14 CCE 0 CODE 0
15 CD2 0 CODE 0
16 CE4 0 CODE 0
17 D04 0 CODE 0
19 D08 0 CODE 0
20 D1C 0 CODE 0
21 D3C 0 CODE 0
22 D60 0 CODE 0
23 D64 0 CODE 0
24 D68 0 CODE 0
25 D7C 0 CODE 0
23 D7E 0 CODE 0
28 D92 0 CODE 0
29 DC6 0 CODE 0
30 DE6 0 CODE 0
31 DFA 0 CODE 0
33 E00 0 CODE 0
34 E16 0 CODE 0
35 E36 0 CODE 0
36 E58 0 CODE 0
C:\Program Files (x86)\Microchip\xc8\v2.10\pic\sources\c99\common\aodiv.c
9 B18 0 CODE 0
15 B1A 0 CODE 0
16 B1E 0 CODE 0
17 B30 0 CODE 0
18 B50 0 CODE 0
20 B54 0 CODE 0
21 B68 0 CODE 0
22 B88 0 CODE 0
24 B8C 0 CODE 0
25 B9A 0 CODE 0
26 BBC 0 CODE 0
27 BC0 0 CODE 0
28 BC4 0 CODE 0
29 BD8 0 CODE 0
27 BDA 0 CODE 0
32 BEE 0 CODE 0
33 C02 0 CODE 0
34 C34 0 CODE 0
35 C54 0 CODE 0
37 C56 0 CODE 0
38 C6A 0 CODE 0
40 C70 0 CODE 0
41 C86 0 CODE 0
42 CA6 0 CODE 0
43 CC8 0 CODE 0
C:\Program Files (x86)\Microchip\xc8\v2.10\pic\sources\c99\common\lwdiv.c
7 FF0 0 CODE 0
13 FF2 0 CODE 0
14 FFA 0 CODE 0
15 1010 0 CODE 0
16 1014 0 CODE 0
17 1018 0 CODE 0
18 1020 0 CODE 0
16 1022 0 CODE 0
21 1036 0 CODE 0
22 103E 0 CODE 0
23 1058 0 CODE 0
24 1060 0 CODE 0
26 1062 0 CODE 0
27 106A 0 CODE 0
28 1070 0 CODE 0
29 1072 0 CODE 0
30 107A 0 CODE 0
