__cntErrataNOP_dist/default/debug\ADC_Polling.X.debug.o 9 0 ABS 0
__S0 30000E 0 ABS 0
__S1 3 0 ABS 0
__S2 0 0 ABS 0
__Hintentry 0 0 ABS 0
__CFG_PWRT$OFF 0 0 ABS 0
__Lintentry 0 0 ABS 0
_main 3F76 0 CODE 0
___sp 0 0 STACK 2
start 2 0 CODE 0
_TRISB F93 0 ABS 0
_TRISC F94 0 ABS 0
_TRISD F95 0 ABS 0
__Hirdata 0 0 CODE 0
__Lirdata 0 0 CODE 0
_PORTC F82 0 ABS 0
__HRAM 0 0 ABS 0
_PORTD F83 0 ABS 0
__LRAM 1 0 ABS 0
__cntErrataNOP_C:\Users\HASITH~1\AppData\Local\Temp\sc7g.o 1 0 ABS 0
__Hconfig 30000E 0 CONFIG 0
__Lconfig 300000 0 CONFIG 0
__CFG_WDTPS$128 0 0 ABS 0
__Hbigram 0 0 ABS 0
__Lbigram 0 0 ABS 0
__Hrparam 0 0 COMRAM 1
__Lrparam 0 0 COMRAM 1
__Hram 0 0 ABS 0
__Lram 0 0 ABS 0
__Hcomram 0 0 ABS 0
__Lcomram 0 0 ABS 0
__Hsfr 0 0 ABS 0
__Lsfr 0 0 ABS 0
__Hbss 0 0 RAM 1
__Lbss 0 0 RAM 1
___param_bank 0 0 ABS 0
__Hnvrram 0 0 COMRAM 1
__Lnvrram 0 0 COMRAM 1
_ADCON0 FC2 0 ABS 0
_ADCON1 FC1 0 ABS 0
__Heeprom_data 0 0 EEDATA 0
__Leeprom_data 0 0 EEDATA 0
__Hintsave_regs 0 0 BIGRAM 1
__Lintsave_regs 0 0 BIGRAM 1
__Hbigbss 0 0 BIGRAM 1
__Lbigbss 0 0 BIGRAM 1
__Hintret 0 0 ABS 0
__Lintret 0 0 ABS 0
__Hramtop 600 0 RAM 0
__Lramtop 600 0 RAM 0
__Hstruct 0 0 COMRAM 1
__Lstruct 0 0 COMRAM 1
__Hbigdata 0 0 BIGRAM 1
__Lbigdata 0 0 BIGRAM 1
__Hmediumconst 0 0 MEDIUMCONST 0
__Lmediumconst 0 0 MEDIUMCONST 0
__Hfarbss 0 0 FARRAM 0
__Lfarbss 0 0 FARRAM 0
__Hintcode 2 0 CODE 0
__Lintcode 2 0 CODE 0
__Hfardata 0 0 FARRAM 0
_ADRESH FC4 0 ABS 0
__Lfardata 0 0 FARRAM 0
__Habs1 0 0 ABS 0
__Labs1 0 0 ABS 0
_ADRESL FC3 0 ABS 0
__CFG_EBTR0$OFF 0 0 ABS 0
__HnvFARRAM 0 0 FARRAM 0
__LnvFARRAM 0 0 FARRAM 0
__CFG_EBTR1$OFF 0 0 ABS 0
__CFG_EBTR2$OFF 0 0 ABS 0
__CFG_BORV$25 0 0 ABS 0
__Hdata 0 0 ABS 0
__Ldata 0 0 ABS 0
__CFG_EBTR3$OFF 0 0 ABS 0
stackhi 5FF 0 ABS 0
__Htemp 0 0 COMRAM 1
__Ltemp 0 0 COMRAM 1
stacklo 60 0 ABS 0
__Hrbit 0 0 COMRAM 1
__Lrbit 0 0 COMRAM 1
__Hinit 6 0 CODE 0
__Linit 2 0 CODE 0
__Hintcodelo 2 0 CODE 0
__Lintcodelo 2 0 CODE 0
__Hrbss 0 0 COMRAM 1
__end_of_main 3FFE 0 CODE 0
__Lrbss 0 0 COMRAM 1
__Htext 0 0 ABS 0
__Ltext 0 0 ABS 0
__CFG_OSC$HS 0 0 ABS 0
__CFG_LVP$ON 0 0 ABS 0
end_of_initialization 3F70 0 CODE 0
_TRISAbits F92 0 ABS 0
_PORTBbits F81 0 ABS 0
__Hibigdata 0 0 CODE 0
__Libigdata 0 0 CODE 0
__Hifardata 0 0 CODE 0
__Lifardata 0 0 CODE 0
__Hbank0 0 0 ABS 0
__Lbank0 0 0 ABS 0
__Hbank1 0 0 ABS 0
__Lbank1 0 0 ABS 0
__Hbank2 0 0 ABS 0
__Lbank2 0 0 ABS 0
__Hbank3 0 0 ABS 0
__Lbank3 0 0 ABS 0
__Hbank4 0 0 ABS 0
__Lbank4 0 0 ABS 0
__Hbank5 0 0 ABS 0
__Lbank5 0 0 ABS 0
__Hpowerup 2 0 CODE 0
__Lpowerup 2 0 CODE 0
__Htext0 0 0 ABS 0
__Ltext0 0 0 ABS 0
__ptext0 3F76 0 CODE 0
__Hclrtext 0 0 ABS 0
__Lclrtext 0 0 ABS 0
__end_of__initialization 3F70 0 CODE 0
___rparam_used 1 0 ABS 0
__Hidata 0 0 CODE 0
__Lidata 0 0 CODE 0
__Hrdata 0 0 COMRAM 1
__Lrdata 0 0 COMRAM 1
__Hidloc 200008 0 IDLOC 0
__Lidloc 200000 0 IDLOC 0
__Hstack 0 0 STACK 2
__Lstack 0 0 STACK 2
__Hparam 0 0 COMRAM 1
__Lparam 0 0 COMRAM 1
__Hspace_0 30000E 0 ABS 0
__HcstackCOMRAM 0 0 ABS 0
__Lspace_0 0 0 ABS 0
__LcstackCOMRAM 0 0 ABS 0
__pcstackCOMRAM 1 0 COMRAM 1
__Hspace_1 3 0 ABS 0
__Lspace_1 0 0 ABS 0
__Hsmallconst 0 0 SMALLCONST 0
__Lsmallconst 0 0 SMALLCONST 0
__Hspace_2 0 0 ABS 0
__Lspace_2 0 0 ABS 0
__Hnvbit 0 0 COMRAM 1
__Lnvbit 0 0 COMRAM 1
__Hcinit 0 0 ABS 0
__Lcinit 0 0 ABS 0
__pcinit 3F70 0 CODE 0
__CFG_EBTRB$OFF 0 0 ABS 0
__ramtop 600 0 RAM 0
__mediumconst 0 0 MEDIUMCONST 0
__size_of_main 0 0 ABS 0
__Hconst 0 0 CONST 0
__Lconst 0 0 CONST 0
__CFG_WRT0$OFF 0 0 ABS 0
__CFG_WRT1$OFF 0 0 ABS 0
__CFG_WRT2$OFF 0 0 ABS 0
__CFG_STVR$ON 0 0 ABS 0
__CFG_WRT3$OFF 0 0 ABS 0
_ADCON0bits FC2 0 ABS 0
___inthi_sp 0 0 STACK 2
___intlo_sp 0 0 STACK 2
__CFG_CP0$OFF 0 0 ABS 0
__smallconst 0 0 SMALLCONST 0
__CFG_CP1$OFF 0 0 ABS 0
__Hreset_vec 2 0 CODE 0
__Lreset_vec 0 0 CODE 0
__CFG_CP2$OFF 0 0 ABS 0
__CFG_CP3$OFF 0 0 ABS 0
__accesstop 60 0 ABS 0
__Hintcode_body 0 0 ABS 0
__Lintcode_body 0 0 ABS 0
intlevel0 3F6E 0 CODE 0
intlevel1 3F6E 0 CODE 0
__CFG_WRTB$OFF 0 0 ABS 0
intlevel2 3F6E 0 CODE 0
intlevel3 3F6E 0 CODE 0
__CFG_WRTC$OFF 0 0 ABS 0
__CFG_WRTD$OFF 0 0 ABS 0
__CFG_CPB$OFF 0 0 ABS 0
__CFG_CPD$OFF 0 0 ABS 0
start_initialization 3F70 0 CODE 0
__CFG_OSCS$OFF 0 0 ABS 0
__initialization 3F70 0 CODE 0
__CFG_BOR$OFF 0 0 ABS 0
__activetblptr 0 0 ABS 0
__CFG_WDT$OFF 0 0 ABS 0
%segments
reset_vec 0 5 CODE 0 0
config 300000 30000D CONFIG 300000 0
idloc 200000 200007 IDLOC 200000 0
cstackCOMRAM 1 2 COMRAM 1 1
text0 3F76 3FFF CODE 3F76 0
cinit 3F70 3F75 CODE 3F70 0
text 3F6E 3F6F CODE 3F6E 0
%locals
dist/default/debug\ADC_Polling.X.debug.o
C:\Program Files (x86)\Microchip\xc8\v2.10\pic\include\pic18f458.h
C:\Users\HASITH~1\AppData\Local\Temp\sc7g.s
690 3F70 0 CODE 0
692 3F70 0 CODE 0
695 3F70 0 CODE 0
701 3F70 0 CODE 0
703 3F70 0 CODE 0
704 3F72 0 CODE 0
main.c
67 3F76 0 CODE 0
68 3F76 0 CODE 0
69 3F7C 0 CODE 0
70 3F80 0 CODE 0
71 3F84 0 CODE 0
72 3F86 0 CODE 0
73 3F8A 0 CODE 0
76 3F8E 0 CODE 0
77 3F98 0 CODE 0
78 3F9A 0 CODE 0
79 3FAE 0 CODE 0
80 3FB2 0 CODE 0
81 3FB6 0 CODE 0
82 3FDC 0 CODE 0
